﻿name,From,To,para_num,r,x,c,tap_ratio,phase_shift
branch01,bus01,bus02,1,0.01938,0.05917,0.0528,1,0
branch02,bus01,bus05,1,0.05403,0.22304,0.0492,1,0
branch03,bus02,bus03,1,0.04699,0.19797,0.0438,1,0
branch04,bus02,bus04,1,0.05811,0.17632,0.034,1,0
branch05,bus02,bus05,1,0.05695,0.17388,0.0346,1,0
branch06,bus03,bus04,1,0.06701,0.17103,0.0128,1,0
branch07,bus04,bus05,1,0.01335,0.04211,0,1,0
substation1,bus04,bus07,1,0,0.20912,0,0.978,0
substation2,bus04,bus09,1,0,0.55618,0,0.969,0
substation3,bus05,bus06,1,0,0.25202,0,0.932,0
branch08,bus06,bus11,1,0.09498,0.1989,0,1,0
branch09,bus06,bus12,1,0.12291,0.25581,0,1,0
branch10,bus06,bus13,1,0.06615,0.13027,0,1,0
branch11,bus07,bus08,1,0,0.17615,0,1,0
branch12,bus07,bus09,1,0,0.11001,0,1,0
branch13,bus09,bus10,1,0.03181,0.0845,0,1,0
branch14,bus09,bus14,1,0.12711,0.27038,0,1,0
branch15,bus10,bus11,1,0.08205,0.19207,0,1,0
branch16,bus12,bus13,1,0.22092,0.19988,0,1,0
branch17,bus13,bus14,1,0.17093,0.34802,0,1,0
