﻿name,From,To,para_num,r,x,c,tap_ratio,phase_shift
branch001,bus001,bus002,1,0.0303,0.0999,0.0254,1,0
branch002,bus001,bus003,1,0.0129,0.0424,0.01082,1,0
branch003,bus004,bus005,1,0.00176,0.00798,0.0021,1,0
branch004,bus003,bus005,1,0.0241,0.108,0.0284,1,0
branch005,bus005,bus006,1,0.0119,0.054,0.01426,1,0
branch006,bus006,bus007,1,0.00459,0.0208,0.0055,1,0
branch007,bus008,bus009,1,0.00244,0.0305,1.162,1,0
branch008,bus008,bus005,1,0,0.0267,0,0.985,0
branch009,bus009,bus010,1,0.00258,0.0322,1.23,1,0
branch010,bus004,bus011,1,0.0209,0.0688,0.01748,1,0
branch011,bus005,bus011,1,0.0203,0.0682,0.01738,1,0
branch012,bus011,bus012,1,0.00595,0.0196,0.00502,1,0
branch013,bus002,bus012,1,0.0187,0.0616,0.01572,1,0
branch014,bus003,bus012,1,0.0484,0.16,0.0406,1,0
branch015,bus007,bus012,1,0.00862,0.034,0.00874,1,0
branch016,bus011,bus013,1,0.02225,0.0731,0.01876,1,0
branch017,bus012,bus014,1,0.0215,0.0707,0.01816,1,0
branch018,bus013,bus015,1,0.0744,0.2444,0.06268,1,0
branch019,bus014,bus015,1,0.0595,0.195,0.0502,1,0
branch020,bus012,bus016,1,0.0212,0.0834,0.0214,1,0
branch021,bus015,bus017,1,0.0132,0.0437,0.0444,1,0
branch022,bus016,bus017,1,0.0454,0.1801,0.0466,1,0
branch023,bus017,bus018,1,0.0123,0.0505,0.01298,1,0
branch024,bus018,bus019,1,0.01119,0.0493,0.01142,1,0
branch025,bus019,bus020,1,0.0252,0.117,0.0298,1,0
branch026,bus015,bus019,1,0.012,0.0394,0.0101,1,0
branch027,bus020,bus021,1,0.0183,0.0849,0.0216,1,0
branch028,bus021,bus022,1,0.0209,0.097,0.0246,1,0
branch029,bus022,bus023,1,0.0342,0.159,0.0404,1,0
branch030,bus023,bus024,1,0.0135,0.0492,0.0498,1,0
branch031,bus023,bus025,1,0.0156,0.08,0.0864,1,0
branch032,bus026,bus025,1,0,0.0382,0,0.96,0
branch033,bus025,bus027,1,0.0318,0.163,0.1764,1,0
branch034,bus027,bus028,1,0.01913,0.0855,0.0216,1,0
branch035,bus028,bus029,1,0.0237,0.0943,0.0238,1,0
branch036,bus030,bus017,1,0,0.0388,0,0.96,0
branch037,bus008,bus030,1,0.00431,0.0504,0.514,1,0
branch038,bus026,bus030,1,0.00799,0.086,0.908,1,0
branch039,bus017,bus031,1,0.0474,0.1563,0.0399,1,0
branch040,bus029,bus031,1,0.0108,0.0331,0.0083,1,0
branch041,bus023,bus032,1,0.0317,0.1153,0.1173,1,0
branch042,bus031,bus032,1,0.0298,0.0985,0.0251,1,0
branch043,bus027,bus032,1,0.0229,0.0755,0.01926,1,0
branch044,bus015,bus033,1,0.038,0.1244,0.03194,1,0
branch045,bus019,bus034,1,0.0752,0.247,0.0632,1,0
branch046,bus035,bus036,1,0.00224,0.0102,0.00268,1,0
branch047,bus035,bus037,1,0.011,0.0497,0.01318,1,0
branch048,bus033,bus037,1,0.0415,0.142,0.0366,1,0
branch049,bus034,bus036,1,0.00871,0.0268,0.00568,1,0
branch050,bus034,bus037,1,0.00256,0.0094,0.00984,1,0
branch051,bus038,bus037,1,0,0.0375,0,0.935,0
branch052,bus037,bus039,1,0.0321,0.106,0.027,1,0
branch053,bus037,bus040,1,0.0593,0.168,0.042,1,0
branch054,bus030,bus038,1,0.00464,0.054,0.422,1,0
branch055,bus039,bus040,1,0.0184,0.0605,0.01552,1,0
branch056,bus040,bus041,1,0.0145,0.0487,0.01222,1,0
branch057,bus040,bus042,1,0.0555,0.183,0.0466,1,0
branch058,bus041,bus042,1,0.041,0.135,0.0344,1,0
branch059,bus043,bus044,1,0.0608,0.2454,0.06068,1,0
branch060,bus034,bus043,1,0.0413,0.1681,0.04226,1,0
branch061,bus044,bus045,1,0.0224,0.0901,0.0224,1,0
branch062,bus045,bus046,1,0.04,0.1356,0.0332,1,0
branch063,bus046,bus047,1,0.038,0.127,0.0316,1,0
branch064,bus046,bus048,1,0.0601,0.189,0.0472,1,0
branch065,bus047,bus049,1,0.0191,0.0625,0.01604,1,0
branch066,bus042,bus049,1,0.0715,0.323,0.086,1,0
branch067,bus042,bus049,1,0.0715,0.323,0.086,1,0
branch068,bus045,bus049,1,0.0684,0.186,0.0444,1,0
branch069,bus048,bus049,1,0.0179,0.0505,0.01258,1,0
branch070,bus049,bus050,1,0.0267,0.0752,0.01874,1,0
branch071,bus049,bus051,1,0.0486,0.137,0.0342,1,0
branch072,bus051,bus052,1,0.0203,0.0588,0.01396,1,0
branch073,bus052,bus053,1,0.0405,0.1635,0.04058,1,0
branch074,bus053,bus054,1,0.0263,0.122,0.031,1,0
branch075,bus049,bus054,1,0.073,0.289,0.0738,1,0
branch076,bus049,bus054,1,0.0869,0.291,0.073,1,0
branch077,bus054,bus055,1,0.0169,0.0707,0.0202,1,0
branch078,bus054,bus056,1,0.00275,0.00955,0.00732,1,0
branch079,bus055,bus056,1,0.00488,0.0151,0.00374,1,0
branch080,bus056,bus057,1,0.0343,0.0966,0.0242,1,0
branch081,bus050,bus057,1,0.0474,0.134,0.0332,1,0
branch082,bus056,bus058,1,0.0343,0.0966,0.0242,1,0
branch083,bus051,bus058,1,0.0255,0.0719,0.01788,1,0
branch084,bus054,bus059,1,0.0503,0.2293,0.0598,1,0
branch085,bus056,bus059,1,0.0825,0.251,0.0569,1,0
branch086,bus056,bus059,1,0.0803,0.239,0.0536,1,0
branch087,bus055,bus059,1,0.04739,0.2158,0.05646,1,0
branch088,bus059,bus060,1,0.0317,0.145,0.0376,1,0
branch089,bus059,bus061,1,0.0328,0.15,0.0388,1,0
branch090,bus060,bus061,1,0.00264,0.0135,0.01456,1,0
branch091,bus060,bus062,1,0.0123,0.0561,0.01468,1,0
branch092,bus061,bus062,1,0.00824,0.0376,0.0098,1,0
branch093,bus063,bus059,1,0,0.0386,0,0.96,0
branch094,bus063,bus064,1,0.00172,0.02,0.216,1,0
branch095,bus064,bus061,1,0,0.0268,0,0.985,0
branch096,bus038,bus065,1,0.00901,0.0986,1.046,1,0
branch097,bus064,bus065,1,0.00269,0.0302,0.38,1,0
branch098,bus049,bus066,1,0.018,0.0919,0.0248,1,0
branch099,bus049,bus066,1,0.018,0.0919,0.0248,1,0
branch100,bus062,bus066,1,0.0482,0.218,0.0578,1,0
branch101,bus062,bus067,1,0.0258,0.117,0.031,1,0
branch102,bus065,bus066,1,0,0.037,0,0.935,0
branch103,bus066,bus067,1,0.0224,0.1015,0.02682,1,0
branch104,bus065,bus068,1,0.00138,0.016,0.638,1,0
branch105,bus047,bus069,1,0.0844,0.2778,0.07092,1,0
branch106,bus049,bus069,1,0.0985,0.324,0.0828,1,0
branch107,bus068,bus069,1,0,0.037,0,0.935,0
branch108,bus069,bus070,1,0.03,0.127,0.122,1,0
branch109,bus024,bus070,1,0.00221,0.4115,0.10198,1,0
branch110,bus070,bus071,1,0.00882,0.0355,0.00878,1,0
branch111,bus024,bus072,1,0.0488,0.196,0.0488,1,0
branch112,bus071,bus072,1,0.0446,0.18,0.04444,1,0
branch113,bus071,bus073,1,0.00866,0.0454,0.01178,1,0
branch114,bus070,bus074,1,0.0401,0.1323,0.03368,1,0
branch115,bus070,bus075,1,0.0428,0.141,0.036,1,0
branch116,bus069,bus075,1,0.0405,0.122,0.124,1,0
branch117,bus074,bus075,1,0.0123,0.0406,0.01034,1,0
branch118,bus076,bus077,1,0.0444,0.148,0.0368,1,0
branch119,bus069,bus077,1,0.0309,0.101,0.1038,1,0
branch120,bus075,bus077,1,0.0601,0.1999,0.04978,1,0
branch121,bus077,bus078,1,0.00376,0.0124,0.01264,1,0
branch122,bus078,bus079,1,0.00546,0.0244,0.00648,1,0
branch123,bus077,bus080,1,0.017,0.0485,0.0472,1,0
branch124,bus077,bus080,1,0.0294,0.105,0.0228,1,0
branch125,bus079,bus080,1,0.0156,0.0704,0.0187,1,0
branch126,bus068,bus081,1,0.00175,0.0202,0.808,1,0
branch127,bus081,bus080,1,0,0.037,0,0.935,0
branch128,bus077,bus082,1,0.0298,0.0853,0.08174,1,0
branch129,bus082,bus083,1,0.0112,0.03665,0.03796,1,0
branch130,bus083,bus084,1,0.0625,0.132,0.0258,1,0
branch131,bus083,bus085,1,0.043,0.148,0.0348,1,0
branch132,bus084,bus085,1,0.0302,0.0641,0.01234,1,0
branch133,bus085,bus086,1,0.035,0.123,0.0276,1,0
branch134,bus086,bus087,1,0.02828,0.2074,0.0445,1,0
branch135,bus085,bus088,1,0.02,0.102,0.0276,1,0
branch136,bus085,bus089,1,0.0239,0.173,0.047,1,0
branch137,bus088,bus089,1,0.0139,0.0712,0.01934,1,0
branch138,bus089,bus090,1,0.0518,0.188,0.0528,1,0
branch139,bus089,bus090,1,0.0238,0.0997,0.106,1,0
branch140,bus090,bus091,1,0.0254,0.0836,0.0214,1,0
branch141,bus089,bus092,1,0.0099,0.0505,0.0548,1,0
branch142,bus089,bus092,1,0.0393,0.1581,0.0414,1,0
branch143,bus091,bus092,1,0.0387,0.1272,0.03268,1,0
branch144,bus092,bus093,1,0.0258,0.0848,0.0218,1,0
branch145,bus092,bus094,1,0.0481,0.158,0.0406,1,0
branch146,bus093,bus094,1,0.0223,0.0732,0.01876,1,0
branch147,bus094,bus095,1,0.0132,0.0434,0.0111,1,0
branch148,bus080,bus096,1,0.0356,0.182,0.0494,1,0
branch149,bus082,bus096,1,0.0162,0.053,0.0544,1,0
branch150,bus094,bus096,1,0.0269,0.0869,0.023,1,0
branch151,bus080,bus097,1,0.0183,0.0934,0.0254,1,0
branch152,bus080,bus098,1,0.0238,0.108,0.0286,1,0
branch153,bus080,bus099,1,0.0454,0.206,0.0546,1,0
branch154,bus092,bus100,1,0.0648,0.295,0.0472,1,0
branch155,bus094,bus100,1,0.0178,0.058,0.0604,1,0
branch156,bus095,bus096,1,0.0171,0.0547,0.01474,1,0
branch157,bus096,bus097,1,0.0173,0.0885,0.024,1,0
branch158,bus098,bus100,1,0.0397,0.179,0.0476,1,0
branch159,bus099,bus100,1,0.018,0.0813,0.0216,1,0
branch160,bus100,bus101,1,0.0277,0.1262,0.0328,1,0
branch161,bus092,bus102,1,0.0123,0.0559,0.01464,1,0
branch162,bus101,bus102,1,0.0246,0.112,0.0294,1,0
branch163,bus100,bus103,1,0.016,0.0525,0.0536,1,0
branch164,bus100,bus104,1,0.0451,0.204,0.0541,1,0
branch165,bus103,bus104,1,0.0466,0.1584,0.0407,1,0
branch166,bus103,bus105,1,0.0535,0.1625,0.0408,1,0
branch167,bus100,bus106,1,0.0605,0.229,0.062,1,0
branch168,bus104,bus105,1,0.00994,0.0378,0.00986,1,0
branch169,bus105,bus106,1,0.014,0.0547,0.01434,1,0
branch170,bus105,bus107,1,0.053,0.183,0.0472,1,0
branch171,bus105,bus108,1,0.0261,0.0703,0.01844,1,0
branch172,bus106,bus107,1,0.053,0.183,0.0472,1,0
branch173,bus108,bus109,1,0.0105,0.0288,0.0076,1,0
branch174,bus103,bus110,1,0.03906,0.1813,0.0461,1,0
branch175,bus109,bus110,1,0.0278,0.0762,0.0202,1,0
branch176,bus110,bus111,1,0.022,0.0755,0.02,1,0
branch177,bus110,bus112,1,0.0247,0.064,0.062,1,0
branch178,bus017,bus113,1,0.00913,0.0301,0.00768,1,0
branch179,bus032,bus113,1,0.0615,0.203,0.0518,1,0
branch180,bus032,bus114,1,0.0135,0.0612,0.01628,1,0
branch181,bus027,bus115,1,0.0164,0.0741,0.01972,1,0
branch182,bus114,bus115,1,0.0023,0.0104,0.00276,1,0
branch183,bus068,bus116,1,0.00034,0.00405,0.164,1,0
branch184,bus012,bus117,1,0.0329,0.14,0.0358,1,0
branch185,bus075,bus118,1,0.0145,0.0481,0.01198,1,0
branch186,bus076,bus118,1,0.0164,0.0544,0.01356,1,0
