﻿name,type,V,P,Q,GS,BS
bus1,ref,1.04,0,0,0,0
bus2,PV,1.025,0,0,0,0
bus3,PV,1.025,0,0,0,0
bus4,PQ,1,0,0,0,0
bus5,PQ,1,1.25,0.5,0,0
bus6,PQ,1,0.9,0.3,0,0
bus7,PQ,1,0,0,0,0
bus8,PQ,1,1,0.35,0,0
bus9,PQ,1,0,0,0,0
