﻿name,bus,P
generation001,bus0002,3.037966
generation002,bus0003,3.043822
generation003,bus0004,3.039515
generation004,bus0006,1.9125
generation005,bus0007,1.9125
generation006,bus0009,1.9125
generation007,bus0010,1.9125
generation008,bus0011,1.9125
generation009,bus0012,2.0925
generation010,bus0013,3.023886
generation011,bus0015,2.904628
generation012,bus0016,2.9018
generation013,bus0017,2.904318
generation014,bus0018,2.903847
generation015,bus0020,2.901997
generation016,bus0021,2.901997
generation017,bus0022,1.44
generation018,bus0024,3.051217
generation019,bus0025,3.05002
generation020,bus0027,3.045867
generation021,bus0028,3.046193
generation022,bus0030,2.868438
generation023,bus0031,2.868438
generation024,bus0032,2.868438
generation025,bus0033,2.868438
generation026,bus0034,2.868438
generation027,bus0035,0
generation028,bus0037,2.881762
generation029,bus0038,2.881763
generation030,bus0039,2.881758
generation031,bus0041,2.885539
generation032,bus0042,2.885536
generation033,bus0043,2.88585
generation034,bus0045,3.147812
generation035,bus0046,3.14763
generation036,bus0048,2.892201
generation037,bus0049,2.886363
generation038,bus0051,2.881725
generation039,bus0052,2.884486
generation040,bus0054,0
generation041,bus0055,0
generation042,bus0057,2.899488
generation043,bus0059,2.907522
generation044,bus0061,2.911783
generation045,bus0062,2.899952
generation046,bus0064,2.7
generation047,bus0065,1.35
generation048,bus0067,2.923875
generation049,bus0069,2.923719
generation050,bus0071,2.927575
generation051,bus0073,2.927764
generation052,bus0075,0
generation053,bus0076,0
generation054,bus0077,0
generation055,bus0078,0
generation056,bus0080,2.872248
generation057,bus0081,2.872549
generation058,bus0083,3.004165
generation059,bus0084,3.003998
generation060,bus0085,3.004498
generation061,bus0086,3.0045
generation062,bus0088,3.203082
generation063,bus0089,3.202899
generation064,bus0091,2.985716
generation065,bus0092,2.985988
generation066,bus0094,2.854042
generation067,bus0096,2.858162
generation068,bus0097,2.858163
generation069,bus0099,2.16
generation070,bus0100,2.16
generation071,bus0101,2.16
generation072,bus0102,2.16
generation073,bus0103,2.43
generation074,bus0104,2.43
generation075,bus0105,2.169
generation076,bus0106,2.169
generation077,bus0107,2.169
generation078,bus0108,2.816044
generation079,bus0110,3.03296
generation080,bus0111,3.033132
generation081,bus0113,3.025446
generation082,bus0114,3.025428
generation083,bus0116,2.973915
generation084,bus0117,2.974102
generation085,bus0118,2.976882
generation086,bus0120,3.068929
generation087,bus0121,3.068755
generation088,bus0122,0
generation089,bus0124,2.917829
generation090,bus0125,2.917673
generation091,bus0126,2.917032
generation092,bus0128,2.999062
generation093,bus0129,3.003579
generation094,bus0131,3.008971
generation095,bus0132,3.002242
generation096,bus0134,2.999039
generation097,bus0135,2.999061
generation098,bus0137,2.28
generation099,bus0138,2.28
generation100,bus0139,2.28
generation101,bus0140,3.006296
generation102,bus0142,3.088195
generation103,bus0143,3.088194
generation104,bus0145,2.3025
generation105,bus0146,2.3025
generation106,bus0147,2.3025
generation107,bus0148,2.3025
generation108,bus0150,2.3025
generation109,bus0151,2.3025
generation110,bus0152,2.3025
generation111,bus0153,2.3025
generation112,bus0154,2.79996
generation113,bus0155,2.800471
generation114,bus0156,0
generation115,bus0158,0
generation116,bus0159,2.997712
generation117,bus0161,3.016298
generation118,bus0162,2.992064
generation119,bus0164,2.893071
generation120,bus0165,2.892751
generation121,bus0166,2.893216
generation122,bus0167,2.893064
generation123,bus0169,2.933221
generation124,bus0170,2.93306
generation125,bus0171,2.933849
generation126,bus0172,2.939031
generation127,bus0174,2.914693
generation128,bus0175,2.914692
generation129,bus0176,2.914688
generation130,bus0177,2.91469
generation131,bus0178,3.042646
generation132,bus0179,3.042646
generation133,bus0180,3.044259
generation134,bus0182,0
generation135,bus0184,2.535
generation136,bus0185,2.535
generation137,bus0186,2.535
generation138,bus0187,2.818467
generation139,bus0188,3.047504
generation140,bus0189,3.047504
generation141,bus0190,3.049144
generation142,bus0191,2.61
generation143,bus0192,2.61
generation144,bus0193,2.52
generation145,bus0195,2.909585
generation146,bus0196,2.909585
generation147,bus0197,2.909585
generation148,bus0199,2.942835
generation149,bus0200,2.942835
generation150,bus0201,2.942835
generation151,bus0203,3.066734
generation152,bus0204,3.066734
generation153,bus0205,3.066734
generation154,bus0206,3.059258
generation155,bus0208,3.067893
generation156,bus0209,0.4845
generation157,bus0211,2.919105
generation158,bus0212,2.919105
generation159,bus0213,2.920336
generation160,bus0215,3.020171
generation161,bus0216,3.020171
generation162,bus0217,3.020171
generation163,bus0219,3.013644
generation164,bus0220,3.013644
generation165,bus0221,3.013644
generation166,bus0222,2.904957
generation167,bus0224,2.842307
generation168,bus0225,2.842307
generation169,bus0226,2.842307
generation170,bus0228,3.166388
generation171,bus0229,3.166388
generation172,bus0231,3.049596
generation173,bus0232,3.049596
generation174,bus0234,0.66
generation175,bus0235,0.66
generation176,bus0236,0.675
generation177,bus0237,0.675
generation178,bus0238,0.675
generation179,bus0239,0.675
generation180,bus0241,2.826396
generation181,bus0242,2.826396
generation182,bus0243,1.755
generation183,bus0244,1.755
generation184,bus0249,3.100921
generation185,bus0251,3.102737
generation186,bus0253,0.9
generation187,bus0254,2.535
generation188,bus0256,0.555
generation189,bus0257,0.555
generation190,bus0258,0.555
generation191,bus0259,0.66
generation192,bus0261,3.073149
generation193,bus0263,1.05
generation194,bus0264,1.05
generation195,bus0265,1.05
generation196,bus0270,3.042017
generation197,bus0272,2.55
generation198,bus0273,1.125
generation199,bus0275,1.815
generation200,bus0276,1.815
generation201,bus0277,1.815
generation202,bus0352,0
generation203,bus0353,0
generation204,bus0408,3.138041
generation205,bus0425,0
generation206,bus0431,3.059952
generation207,bus0572,0
generation208,bus0574,0
generation209,bus0585,0
generation210,bus0855,0
generation211,bus0882,0
generation212,bus0883,0
generation213,bus0884,0
generation214,bus0885,0
generation215,bus0886,0
generation216,bus0887,0
generation217,bus0888,0
generation218,bus0889,0
generation219,bus0890,0
generation220,bus0891,0
generation221,bus0892,0
generation222,bus0893,0
generation223,bus0894,0
generation224,bus0895,0
generation225,bus0896,0
generation226,bus0897,0
generation227,bus0898,0
generation228,bus0901,0
generation229,bus0903,0
generation230,bus0974,0
generation231,bus0975,0
generation232,bus0976,0
generation233,bus0977,0
generation234,bus0978,0
generation235,bus0979,0
generation236,bus0980,0
generation237,bus0981,0
generation238,bus0982,0
generation239,bus0983,0
generation240,bus0984,0
generation241,bus0985,0
generation242,bus1083,1.965
generation243,bus1084,1.965
generation244,bus1085,1.965
generation245,bus1288,2.0055
generation246,bus1289,2.0055
generation247,bus1290,2.0055
generation248,bus1323,2.025
generation249,bus1324,2.025
generation250,bus1325,2.025
generation251,bus1327,2.944026
generation252,bus1372,2.993907
generation253,bus1374,0.615
generation254,bus1375,0.615
generation255,bus1376,0.615
generation256,bus1377,0.615
generation257,bus1378,0.96
generation258,bus1387,2.37
generation259,bus1392,2.200764
generation260,bus1393,2.200764
generation261,bus1394,2.200764
generation262,bus1395,2.200764
generation263,bus1397,2.473043
generation264,bus1398,2.473043
generation265,bus1400,2.320515
generation266,bus1401,2.32032
generation267,bus1403,1.0575
generation268,bus1405,0.7875
generation269,bus1407,1.905834
generation270,bus1408,1.905834
generation271,bus1409,1.905834
generation272,bus1410,1.905765
generation273,bus1412,1.65
generation274,bus1413,1.65
generation275,bus1415,1.65
generation276,bus1416,1.65
generation277,bus1418,1.404
generation278,bus1420,0.533166
generation279,bus1422,0.533709
generation280,bus1424,0.324
generation281,bus1426,0.6804
generation282,bus1428,0.3564
generation283,bus1430,0.4104
generation284,bus1432,0.675
generation285,bus1434,1.1592
generation286,bus1436,1.1592
generation287,bus1438,1.1592
generation288,bus1440,0.3456
generation289,bus1683,1.8
generation290,bus1728,0.495
generation291,bus1786,0.2052
generation292,bus1788,0.1296
generation293,bus1790,0.3024
generation294,bus1792,0.3132
generation295,bus1794,0.0936
generation296,bus1796,0.2301
generation297,bus1798,0.3996
generation298,bus1800,0.3996
generation299,bus1802,0.2025
generation300,bus1804,0.324
generation301,bus1806,0.5464
generation302,bus1812,0.2592
generation303,bus1814,0.2592
generation304,bus1824,0.24
generation305,bus1826,0.24
generation306,bus1828,0.3132
generation307,bus1830,0.2865
generation308,bus1834,0.162
generation309,bus1838,0.324
generation310,bus1840,0.375
generation311,bus1842,0.375
generation312,bus1844,0.4968
generation313,bus1846,0.4968
generation314,bus1848,0.345
generation315,bus1849,0.345
generation316,bus1852,0.2475
generation317,bus1854,1.588433
generation318,bus1855,1.587945
generation319,bus1857,0.075
generation320,bus1861,0.555
generation321,bus1863,0.1404
generation322,bus1865,0.1404
generation323,bus1867,0.3255
generation324,bus1873,0.1123
generation325,bus1875,0.15
generation326,bus1876,0.15
generation327,bus1877,0.15
generation328,bus1886,0.225
generation329,bus1892,0.1245
generation330,bus1894,0.702
generation331,bus1896,0.2799
generation332,bus1898,0.1998
generation333,bus1902,0.756
generation334,bus1904,1.760118
generation335,bus1906,1.759396
generation336,bus1908,1.754977
generation337,bus1910,1.754894
generation338,bus1912,1.755202
generation339,bus1914,0.2708
generation340,bus1916,0.252
generation341,bus1918,0.2793
generation342,bus1920,0.6
generation343,bus1922,0.6
generation344,bus1924,0.6
generation345,bus1926,0.4875
generation346,bus1928,0.078
generation347,bus1930,0.18
generation348,bus1932,0.7236
generation349,bus1939,0.2025
generation350,bus1941,0.231
generation351,bus2028,0.075
generation352,bus2039,0.093
generation353,bus2040,0.093
generation354,bus2074,0.375
generation355,bus2090,0.225
generation356,bus2212,0.66
generation357,bus0352,0
generation358,bus0353,0
generation359,bus0425,0
generation360,bus0572,0
generation361,bus0574,0
generation362,bus0585,0
generation363,bus0535,0
generation364,bus0560,0
generation365,bus0560,0
generation366,bus0412,0
generation367,bus0405,0
generation368,bus0408,3.138041
generation369,bus0408,3.138041
generation370,bus0374,0
generation371,bus0374,0
generation372,bus0422,0
generation373,bus0422,0
generation374,bus0425,0
generation375,bus0425,0
generation376,bus0348,0
generation377,bus0359,0
generation378,bus0359,0
generation379,bus0444,0
generation380,bus0522,0
generation381,bus0541,0
generation382,bus0347,0
generation383,bus0565,0
generation384,bus0614,0
generation385,bus0546,0
generation386,bus0544,0
generation387,bus0533,0
generation388,bus0364,0
generation389,bus0606,0
generation390,bus0606,0
generation391,bus0567,0
generation392,bus0614,0
generation393,bus0624,0
generation394,bus0439,0
